<?xml version="1.0" encoding="UTF-8" standalone="no"?>
<!DOCTYPE svg PUBLIC "-//W3C//DTD SVG 1.1//EN" "http://www.w3.org/Graphics/SVG/1.1/DTD/svg11.dtd">
<svg width="100%" height="100%" viewBox="0 0 420 71" version="1.1" xmlns="http://www.w3.org/2000/svg" xmlns:xlink="http://www.w3.org/1999/xlink" xml:space="preserve" xmlns:serif="http://www.serif.com/" style="fill-rule:evenodd;clip-rule:evenodd;stroke-linejoin:round;stroke-miterlimit:2;">
    <g transform="matrix(1,0,0,1,-51.34,-38.3605)">
        <path d="M117.12,96.78L117.12,101.91C117.12,105.38 115.22,107.46 111.76,107.6C108.3,107.74 105.06,107.72 101.76,107.6C98.59,107.5 96.76,105.9 96.46,102.72C96.055,98.984 96.055,95.216 96.46,91.48C96.82,88.33 98.68,86.8 101.87,86.75L111.87,86.75C116.03,86.75 118.36,82.75 118.52,78.6C118.66,74.78 118.67,70.94 118.52,67.12C118.37,63.3 116.02,59.12 112.13,59.02C108.65,58.95 105.13,59.02 101.68,59.02C98.56,59.02 96.75,57.55 96.41,54.45C96.005,50.641 96.005,46.799 96.41,42.99C96.72,39.99 98.69,38.4 101.68,38.37L111.68,38.37C111.784,38.364 111.887,38.36 111.991,38.36C114.784,38.36 117.081,40.658 117.081,43.45C117.081,43.564 117.078,43.677 117.07,43.79L117.07,54.46C117.07,58.24 119.29,62.54 123.07,62.57L133.52,62.57C136.97,62.57 139.14,64.62 139.17,68.14L139.17,77.98C139.17,81.28 137.23,83.19 133.94,83.22C130.65,83.25 127.24,83.22 123.89,83.22C119.14,83.27 117.07,87.53 117.07,92.28L117.12,96.78Z" style="fill:rgb(40,30,120);fill-rule:nonzero;"/>
    </g>
    <g transform="matrix(1,0,0,1,-51.34,-38.3605)">
        <path d="M73.93,73.81L73.93,68.16C73.926,68.079 73.924,67.997 73.924,67.915C73.924,65.145 76.204,62.865 78.974,62.865C79.046,62.865 79.118,62.867 79.19,62.87C82.74,62.8 86.3,62.8 89.85,62.87C89.931,62.866 90.011,62.864 90.092,62.864C92.735,62.864 94.928,64.998 95,67.64C95.16,71.39 95.16,75.17 95,78.92C94.87,82.04 92.74,83.92 89.44,83.92C85.96,83.99 82.44,83.92 78.99,83.92C74.51,83.98 72.49,88.16 72.47,92.66L72.47,102.66C72.47,106.52 70.33,108.66 66.47,108.66L57.27,108.66C53.36,108.66 51.35,106.58 51.34,102.71L51.34,93.1C51.34,89.55 53.34,87.53 56.93,87.48C60.52,87.43 64.03,87.48 67.58,87.48C71.66,87.48 73.91,83.09 73.93,78.97C73.94,77.29 73.93,75.55 73.93,73.81Z" style="fill:rgb(0,133,173);fill-rule:nonzero;"/>
    </g>
    <g transform="matrix(1,0,0,1,-51.34,-38.3605)">
        <path d="M141.52,98L141.52,93C141.52,89.81 143.46,87.71 146.64,87.61C150.19,87.51 153.75,87.5 157.29,87.61C157.293,87.61 157.295,87.61 157.298,87.61C160.041,87.61 162.298,89.867 162.298,92.61C162.298,92.703 162.295,92.797 162.29,92.89L162.29,102.89C162.29,106.44 160.64,108.38 157.06,108.59C153.652,108.77 150.238,108.77 146.83,108.59C143.15,108.4 141.51,106.46 141.5,102.77L141.52,98Z" style="fill:rgb(219,107,48);fill-rule:nonzero;"/>
    </g>
    <g transform="matrix(1,0,0,1,-51.34,-38.3605)">
        <path d="M208.69,58.11L194.58,87.46L198.65,87.46L202.48,79.46L218.24,79.46L222.11,87.46L226.26,87.46L212.15,58.11L208.69,58.11ZM216.59,76L204.13,76L210.38,62.87L216.59,76Z" style="fill:rgb(19,41,75);fill-rule:nonzero;"/>
    </g>
    <g transform="matrix(1,0,0,1,-51.34,-38.3605)">
        <path d="M246.27,82.39L235.08,58.11L230.9,58.11L244.45,87.46L247.92,87.46L261.52,58.11L257.45,58.11L246.27,82.39Z" style="fill:rgb(19,41,75);fill-rule:nonzero;"/>
    </g>
    <g transform="matrix(1,0,0,1,-51.34,-38.3605)">
        <path d="M281.93,58.11L267.82,87.46L271.89,87.46L275.72,79.46L291.47,79.46L295.35,87.46L299.5,87.46L285.39,58.11L281.93,58.11ZM289.83,76L277.36,76L283.62,62.87L289.83,76Z" style="fill:rgb(19,41,75);fill-rule:nonzero;"/>
    </g>
    <g transform="matrix(1,0,0,1,-51.34,-38.3605)">
        <path d="M337.68,81.26L318.91,58.11L314.34,58.11L314.34,87.46L318.05,87.46L318.05,62.9L337.84,87.28L337.99,87.46L341.39,87.46L341.39,58.11L337.68,58.11L337.68,81.26Z" style="fill:rgb(19,41,75);fill-rule:nonzero;"/>
    </g>
    <g transform="matrix(1,0,0,1,-51.34,-38.3605)">
        <path d="M355.65,61.57L367.32,61.57L367.32,87.46L371.11,87.46L371.11,61.57L382.83,61.57L382.83,58.11L355.65,58.11L355.65,61.57Z" style="fill:rgb(19,41,75);fill-rule:nonzero;"/>
    </g>
    <g transform="matrix(1,0,0,1,-51.34,-38.3605)">
        <path d="M424.89,66.7C424.89,61.24 421.42,58.11 415.38,58.11L398,58.11L398,87.46L401.79,87.46L401.79,75.33L413.13,75.33L422.13,87.46L426.8,87.46L417.67,75.18C422.26,74.48 424.89,71.43 424.89,66.7ZM401.75,61.57L414.8,61.57C419.04,61.57 421.01,63.2 421.01,66.7C421.01,70.2 419.01,71.87 414.8,71.87L401.75,71.87L401.75,61.57Z" style="fill:rgb(19,41,75);fill-rule:nonzero;"/>
    </g>
    <g transform="matrix(1,0,0,1,-51.34,-38.3605)">
        <path d="M456.46,58.11L453,58.11L438.89,87.46L443,87.46L446.83,79.46L462.59,79.46L466.46,87.46L470.62,87.46L456.46,58.11ZM460.9,76L448.44,76L454.69,62.87L460.9,76Z" style="fill:rgb(19,41,75);fill-rule:nonzero;"/>
    </g>
</svg>
